{
  "mappings": {
    "properties": {
      "suggest_name": {
        "type": "completion"
      },
      "name": {
        "type": "text"
      },
      "location": {
        "type": "geo_point"
      },
      "attributes" : {
        "properties" : {
          "name" : {
            "type" : "text",
            "fields" : {
              "keyword" : {
                "type" : "keyword"
              }
            }
          },
          "unit" : {
            "type" : "text",
            "fields" : {
              "keyword" : {
                "type" : "keyword"
              }
            }
          },
          "value" : {
            "type" : "text",
            "fields" : {
              "keyword" : {
                "type" : "keyword"
              }
            }
          }
        }
      }
    }
  }
}